20

8 8
3
4 0
5 5
4 3
5 1

7 6
2
3 2
4 4
1 1

7 8
4
6 3
5 3
2 4
0 7
3 2

6 7
3
0 5
4 3
0 0
5 1

6 5
2
1 4
5 1
1 2

8 7
6
0 2
4 5
6 1
1 0
1 2
1 0
4 1

6 5
6
5 1
2 3
1 3
1 2
4 1
4 2
1 1

5 8
3
3 4
2 2
4 1
1 2

8 6
6
3 3
7 2
5 1
4 2
3 5
4 4
2 2

8 7
3
7 2
6 2
4 6
2 1

5 7
2
3 3
1 0
3 2

6 8
6
3 0
2 7
1 7
1 5
4 2
3 1
1 2

8 7
1
1 1
1 2

5 8
4
4 1
1 0
4 3
0 0
5 2

7 7
4
0 6
5 6
6 3
1 4
1 1

5 6
2
1 2
1 3
5 1

5 8
2
1 2
4 2
5 2

5 6
5
4 3
4 0
4 2
3 5
2 3
4 1

8 6
1
3 1
4 1

5 5
5
0 1
4 3
0 3
0 1
4 0
5 2
