*** Life<Cell> 4x4 ***

Generation = 0, Population = 5.
00--
--0-
-00-
----

Generation = 1, Population = 11.
11--
0010
01-0
-00-

Generation = 2, Population = 5.
---0
1---
-*-1
--1-

Generation = 3, Population = 4.
1-0-
----
-*0-
----

Generation = 4, Population = 8.
---0
10--
0.11
-01-

Generation = 5, Population = 7.
110-
-1--
1.-*
-1--

*** Life<Cell> 5x5 ***

Generation = 0, Population = 6.
-----
-00--
-00--
0--0-
-----

Generation = 2, Population = 9.
-11--
----0
0--00
0----
-00--

Generation = 4, Population = 11.
-..--
1-1-*
*1--0
*-1-1
-**--

Generation = 6, Population = 10.
1*.0-
.--0.
..1*-
*-.-*
-**--

Generation = 8, Population = 12.
.**--
.-10*
..**-
.0.-*
0..11

Generation = 10, Population = 10.
.**11
.0.-*
....-
.0*-*
-..*-

*** Life<Cell> 6x6 ***

Generation = 0, Population = 10.
------
00000-
00----
---0--
--0-0-
------

Generation = 2, Population = 17.
11----
-*--*1
0--01-
1-0000
-10-0-
---0--

Generation = 4, Population = 15.
*11---
1.--..
-00-.1
*----*
-*0---
010-0-

Generation = 6, Population = 17.
.-.10-
*.--*.
**-1*.
.--11.
-.01*-
-*00-1

Generation = 8, Population = 17.
.1*.-1
**-1.*
..1-.*
.--.**
-.-1.0
***--1

Generation = 10, Population = 19.
.-..1*
*.0-.*
.*-1.*
*01.*.
1.01.-
***-1.

Generation = 12, Population = 16.
.1..**
..0-.*
**--**
.*-.**
-.-.*0
.**--.

Generation = 14, Population = 10.
.-..*.
**0*..
..1-*.
..*...
-.*..0
...--.

Generation = 16, Population = 5.
.-.*..
.*-.*.
..1-..
..*...
-....-
...--.

Generation = 18, Population = 4.
.-....
.*-*..
..*-..
..*...
-....-
...--.

Generation = 20, Population = 4.
.-....
..*...
.**1..
......
-....-
...--.

*** Life<Cell> 7x7 ***

Generation = 0, Population = 14.
-0000--
00000--
00-----
---0---
--0-0--
-------
-------

Generation = 3, Population = 22.
011----
---11*-
-1----0
*-1-11-
-*--10-
-00-0-0
-0-0-0-

Generation = 6, Population = 23.
*-*--11
-11.*.1
01---*-
.1---*-
-*--.10
0.-*.10
0.--*-0

Generation = 9, Population = 27.
***1**-
**1....
1.0*-.-
**.-..1
0*-*..0
1.1*.-*
..11.01

Generation = 12, Population = 12.
...-..-
.......
-.-**.-
..*-...
*.*.*.1
*.*..*.
.*--.*-

Generation = 15, Population = 10.
...-..-
.......
-.-..*-
..*1.*.
.*....1
..*.*..
..1-*..

Generation = 18, Population = 15.
...-..-
.......
-***.*.
.***.*.
*...**1
*...*..
.*.-...

Generation = 21, Population = 8.
...-..-
.**....
-..*...
*.*....
*......
**.....
...-...

Generation = 24, Population = 6.
...-..-
.......
-**....
*.*....
.......
**.....
...-...

Generation = 27, Population = 5.
...-..-
.*.....
***....
..*....
.......
.......
...-...

Generation = 30, Population = 9.
.*.-..-
*.**...
*.**...
.**....
.......
.......
...-...

*** Life<Cell> 8x8 ***

Generation = 0, Population = 19.
000000--
000000--
00------
---0----
--0--0--
00------
--------
--------

Generation = 4, Population = 23.
-*..1-1-
-0-..0*-
1--01---
-.--*--1
--001110
.--0----
00------
**-0----

Generation = 8, Population = 32.
1...1-*1
1.*.*-.*
-*.**-11
-**.*--*
-1.*.-1-
*.*.*10.
*-*-00--
*.--1*--

Generation = 12, Population = 22.
..***-*.
..*..*.*
1***.-*.
1...*-0.
0....-.-
......-.
.1.0..-1
..0...1*

Generation = 16, Population = 22.
.....-..
...*.***
*.*.*-.*
..*.*-.*
-.*.*-.-
.*....0*
.1.0..-*
..0...**

Generation = 20, Population = 24.
..*..-..
.*.*....
*....-..
*.**.-..
1*...-.-
*....***
.***.*1*
.*1*.**.

Generation = 24, Population = 23.
..*..-..
***.*...
*...*1..
*...**..
*.*.*-.-
*...*..*
*.....-.
.*****..

Generation = 28, Population = 18.
.***....
..**....
.....-..
........
...**-.-
.*.***..
*.**.*1.
.**.....

Generation = 32, Population = 11.
........
........
.....-..
........
.**..**-
*.*.*...
*.*..**.
........

Generation = 36, Population = 10.
........
........
.....-..
.*..*...
.*.***.-
..*...*.
....**..
........

Generation = 40, Population = 10.
........
...**...
..*..-..
.......*
.*.*.*.1
..*...*.
........
........

*** Life<Cell> 4x4 ***

Generation = 0, Population = 2.
-0--
-0--
----
----

Generation = 2, Population = 5.
-*-0
---0
-1--
-0--

Generation = 4, Population = 3.
-.-*
---*
-.--
-*--

*** Life<Cell> 5x5 ***

Generation = 0, Population = 6.
-----
-00--
-00--
0--0-
-----

Generation = 2, Population = 9.
-11--
----0
0--00
0----
-00--

Generation = 4, Population = 11.
-..--
1-1-*
*1--0
*-1-1
-**--

Generation = 6, Population = 10.
1*.0-
.--0.
..1*-
*-.-*
-**--

Generation = 8, Population = 12.
.**--
.-10*
..**-
.0.-*
0..11

Generation = 10, Population = 10.
.**11
.0.-*
....-
.0*-*
-..*-

Generation = 12, Population = 11.
.**11
*-.-.
*...-
.-.1*
-*.*1

Generation = 14, Population = 14.
.**1.
.1***
....1
.**1*
-.**-

*** Life<Cell> 6x6 ***

Generation = 0, Population = 10.
0-----
------
--000-
--000-
--000-
------

Generation = 3, Population = 10.
-----0
--*---
-*-.-*
--.-.*
---.-*
0-***-

Generation = 6, Population = 20.
----0-
--*1*0
-*-***
-1*-.*
0**.-*
-0***-

Generation = 9, Population = 10.
-1*---
1-.**0
*.-...
-*.-..
-*..-.
-0...-

Generation = 12, Population = 16.
-**11-
*-***1
**-...
1*.-..
1*..-.
-1...-

Generation = 15, Population = 12.
-..**1
.-*..*
.*-.*.
*..-..
*.*.-.
1*...-

Generation = 18, Population = 12.
-.*.*1
.-*.*.
**-*..
..*-..
**..-.
1....-

*** Life<Cell> 10x10 ***

Generation = 0, Population = 15.
----------
-00--0----
000-------
000-------
000-------
-00--0----
----------
----------
----------
----------

Generation = 2, Population = 28.
011-------
-00-1--0--
00-10-----
--*10-----
00-10-----
-00-1--0--
011-------
-00--0----
----------
----------

Generation = 4, Population = 36.
-*--------
1---.11--0
*0--*10---
1-.1*10---
*0--*10---
1*0-.-1--0
*1.-------
000-------
011-------
-00--0----

*** Life<Cell> 20x20 ***

Generation = 0, Population = 20.
0-------------------
--------------------
--------------------
-000000000----------
--------------------
--------------------
--------------------
--------------------
--------0-----------
---------0----------
----------00000-----
--------------------
--------------------
------------00------
----------0---------
--------------------
--------------------
--------------------
--------------------
--------------------

Generation = 1, Population = 50.
-0------------------
0-------------------
-000000000----------
01-------10---------
-000000000----------
--------------------
--------------------
--------0-----------
-------0------------
-----------0000-----
----------1---10----
----------00000-----
------------00------
----------00110-----
---------0-000------
----------0---------
--------------------
--------------------
--------------------
--------------------

Generation = 2, Population = 59.
--0-----------------
-000000000----------
0-------------------
1*0-----0*10--------
--------------------
-000000000----------
--------0-----------
---------0----------
------0----0000-----
-------0---1--------
---------0*0-0*10---
---------0--11------
-----------0110-----
----------11--10----
--------0---1-------
------------00------
----------0---------
--------------------
--------------------
--------------------

Generation = 3, Population = 102.
--1-000000----------
-11------10---------
10-00000--00--------
-*10---01*-10-------
0--00000--00--------
01------110---------
-000000-10----------
------0---00000-----
-----0---00---10----
--------00-----00---
-------00-.-0-*-10--
--------01-0-*000---
---------0--**------
--------00*-1--10---
-------0-00-*-00----
--------0-00-10-----
---------0-000------
----------0---------
--------------------
--------------------
