8

10 10
19
1 1
2 2
3 3
4 4
5 5
6 6
7 7
8 8
9 9
1 0
2 0
3 0
4 0
5 0
6 0
7 0
8 0
9 0
3 5
88 88

5 5
13
1 1
2 2
3 3
4 4
1 0
2 0
3 0
4 0
3 4
2 3
0 1
0 2
0 4
113 113

5 5
13
1 1
2 2
3 3
4 4
1 0
2 0
3 0
4 0
4 3
2 3
0 1
0 2
0 4
12 12

10 10
19
1 1
2 2
3 3
4 4
5 5
6 6
7 7
8 8
9 9
1 0
2 0
3 0
4 0
5 0
6 0
7 0
8 0
9 0
4 7
6 9

10 10
19
1 1
2 2
3 3
4 4
2 8
6 6
7 7
8 8
9 9
9 0
3 5
1 0
2 0
3 0
4 0
5 0
6 0
7 0
8 0
7 7

5 5
13
1 1
2 2
3 1
4 4
1 3
2 3
3 3
4 3
3 4
2 1
0 1
0 2
0 4
5 5

5 5
13
1 1
2 2
3 3
4 4
1 0
2 0
3 0
4 0
3 4
2 3
0 1
0 2
0 4
21 21

5 5
13
1 1
2 2
3 3
4 4
1 0
2 0
3 0
4 0
3 4
2 3
0 1
0 2
0 4
13 13
