*** Life<FredkinCell> 14x11 ***

Generation = 0, Population = 15.
----0------
----0--0---
-------0---
---0-------
0-0--------
--00-------
-----------
---0---0---
-----------
-----------
-----------
-0-----0---
--0--------
-0---------

Generation = 1, Population = 41.
---010-0---
---010010--
---00-010--
0---0--0---
--10-------
00-10------
--0----0---
--0-0-0-0--
---0---0---
-----------
-0-----0---
0-----0-0--
-0-0---0---
0----------

Generation = 2, Population = 45.
--0-2-01---
--01-11--0-
0-0-10---0-
-00010-1---
--2-0--0---
11--10-0---
0-1--------
-010-----0-
-----------
-0-0-------
--0--------
-0-0-0---0-
0---0------
---0---0---

*** Life<FredkinCell> 11x9 ***

Generation = 0, Population = 9.
---------
0--0--0--
---------
0-------0
---------
-----0---
-0-------
--------0
---------
-------0-
---------

Generation = 10, Population = 37.
-2-1-----
33465350-
-1-------
12--1--1-
-----2---
-20-0-23-
-2-2---3-
-1112-023
---0-2---
---01--1-
-1-------

*** Life<FredkinCell> 7x15 ***

Generation = 0, Population = 6.
---------------
-------0--0--0-
------0--------
---------------
-------------0-
--------------0
---------------

Generation = 2, Population = 18.
------0--------
-----0--11-11--
----0---0----1-
-------0--0--10
------0----0---
------------0-0
-------------0-

Generation = 4, Population = 18.
------0------0-
---0--01-303---
--0-------1----
---------------
---------0---1-
-------0----010
------0------0-

Generation = 6, Population = 42.
--0-0-2-0-11-0-
-0--1--3---531-
0---0-1-10--0--
---0--0--110021
--0---01--1--3-
-----0---1012--
----0-0-00-0---

Generation = 8, Population = 10.
---------------
--0--1---5--5--
0-------------1
---------------
-----0---1-----
------1-0------
---------------

Generation = 10, Population = 30.
0-------------0
1--12-----26--1
0-1--1---1--1-1
--0--10-02--1--
0--0-------0--0
----0-1-0-1----
-----0---0-----

*** Life<FredkinCell> 11x8 ***

Generation = 0, Population = 12.
-0----0-
--------
-----0--
-----0--
--0--0--
---0----
---00---
------0-
----0---
--------
-0------

Generation = 6, Population = 35.
-0-2-5--
-----201
0-1--2--
----01--
-0-11--2
-20-----
34--4--3
0-------
3-021---
-00---1-
1004-1-0

*** Life<FredkinCell> 6x12 ***

Generation = 0, Population = 16.
--0000----0-
--------0---
-----0--0---
-----00---0-
----------00
--000-------

Generation = 7, Population = 37.
132--3--0--2
101----0-220
215-2----16-
0------12-3-
-0--2441-24-
--10-22--040

Generation = 14, Population = 28.
243-2-------
--63---0---2
-2-336--21-4
-4--32----63
--4---8---96
1--3--4-7---

*** Life<FredkinCell> 8x9 ***

Generation = 0, Population = 19.
-0-------
0-----00-
--0---0-0
00--0-0-0
---------
--0------
-0-0---00
--00-----

Generation = 2, Population = 36.
-010--1-0
-01--10--
00----0--
--010-20-
-110--10-
-000--0-1
-0-2--1-2
00-010---

Generation = 4, Population = 35.
-03--03-0
0-101-2-1
2-111--0-
2203-04--
-1-------
--22---1-
--1-00-1-
-01-1--01

Generation = 6, Population = 40.
-2-102--2
2-32--4--
-13-10--1
242-226--
0----1---
-1-4-1133
00130221-
221--1---

Generation = 8, Population = 34.
-2-1-4-12
2---2-4-2
-152---1-
262--28--
--2---3-1
-3-----5-
00---2413
2--02-0-2

*** Life<FredkinCell> 15x14 ***

Generation = 0, Population = 14.
--------------
-----0---0----
--------------
0-00----------
--------0-----
-----0--------
------0-------
-0------------
---------0----
-------0------
--------------
-0------------
-----------0--
--------0-----
--------------

Generation = 6, Population = 68.
--------0-0---
101-1-0----0-0
---------0--0-
---1-11211---0
-------0---1--
-0-00-0--1----
1----0---1-1-0
--1-02--1--1--
--10---2-1-2--
001--201-31--1
----01-1-1-1--
----10-----00-
-----113-0-0-0
--0------0----
-------1---0--

*** Life<FredkinCell> 13x13 ***

Generation = 0, Population = 19.
----------0--
----0------0-
------------0
---0--0-----0
--0-------0--
-----0--0----
-0-----------
-------------
--------0----
-------0-----
---0------00-
--------0----
----------0--

Generation = 6, Population = 80.
111---0-0-0-0
0-13-21-00---
0-10----2-1-2
-1----1---213
2-10-00---012
--1--11---20-
132-01-1-0---
---20-11-1---
0-0010----0-3
-1--12-1-10--
--1---0-02-3-
--00-1--2--10
---0011-30---

Generation = 12, Population = 83.
43-1-0--2--20
--53-411-1-0-
-0---10-4233-
2-2----2---56
21110-1----44
13-1--3----2-
-4-42202-3--4
---2--4-2-03-
-1----0---34-
-1-12---5-1--
13-0-312-3---
2--10--4--6--
00331251--3-3

Generation = 18, Population = 84.
6643233-2013-
027----5-3-02
-07-2-1------
--52633-744--
-5-5-3--5----
--4144--246-4
--46---3----5
-113--6-35144
----2--1-2-45
-3-1--12--5--
2-4-------5--
21-3---52-+16
0-54--523--47
