*** Life<Cell> 5x6 ***

Generation = 0, Population = 20.
--00-0
-0000-
-0-000
0--000
00000-

Generation = 1, Population = 11.
----0-
0-1--0
-101--
10-1--
---1--

Generation = 2, Population = 17.
0-00--
-0*---
0-1-00
*-0-0-
000*0-

Generation = 3, Population = 15.
-0-10-
01.-00
11---1
*0-1--
--1.-0

Generation = 4, Population = 13.
-1-*--
-*.---
**11-*
*-0-0-
0--.0-

Generation = 5, Population = 19.
0*-.0-
-..--0
*.**0.
*0111-
101*10

Generation = 6, Population = 13.
1.0.--
-.*00-
*...-*
.1--*-
-1*.*1

Generation = 7, Population = 19.
-*1.0-
-.*-1-
.**.0*
**-1*0
1-****

Generation = 8, Population = 12.
1*-.10
-..---
*...1.
*.--.1
*1*..*

Generation = 9, Population = 11.
*.1.*1
-*.--0
....-.
*.1-**
*-....

Generation = 10, Population = 9.
.*-.*-
-*.--1
.*..1*
.*--..
.1....

Generation = 11, Population = 15.
..1..-
0**-1*
***.**
**1-..
.*....

Generation = 12, Population = 10.
..**.1
-..--*
....**
..-1..
***...

Generation = 13, Population = 10.
....**
-..0-*
....**
.*--*.
.**...

Generation = 14, Population = 10.
....**
-..--.
...*.*
.*-1**
.**...

Generation = 15, Population = 13.
......
-..01*
..**.*
.*1-.*
.****.

Generation = 16, Population = 11.
....*.
-.*--*
.*...*
..*1.*
.*.**.

*** Life<Cell> 7x5 ***

Generation = 0, Population = 15.
000--
000--
--0--
---0-
00-0-
-0-00
0----

Generation = 1, Population = 17.
-1-0-
-110-
0-1--
00-10
1----
01--1
---00

Generation = 2, Population = 25.
0*010
--*-0
1-*00
110*1
-0-0-
-*0-*
0001-

Generation = 3, Population = 16.
1*1--
--.--
*0.11
-*1.-
---10
-.--*
111*-

Generation = 4, Population = 20.
***1-
--.00
*-.**
-**.-
-0-*-
0*00*
*--*-

Generation = 5, Population = 10.
.**--
-1.1-
.-..*
-*..1
---.-
-.--*
*--*-

Generation = 6, Population = 13.
.**--
0*.--
.-***
1...*
-0-.-
0.--.
.11.-

Generation = 7, Population = 20.
***1-
1..10
*-***
-**.*
1-0.0
-.0-.
.**.-

Generation = 8, Population = 14.
***--
-..*-
*0...
1...*
-0-.1
0.-0.
.**.-

Generation = 9, Population = 12.
.**--
-...0
*1...
*....
1-0**
-.--.
.**.-

Generation = 10, Population = 14.
...10
1.*.-
**...
*.**.
*-1*.
0.-0.
....-

*** Life<Cell> 9x10 ***

Generation = 0, Population = 13.
00----0---
-0--------
----------
--0-------
-0--------
-----0----
-------0-0
-0---0----
--------00

Generation = 2, Population = 32.
-0100-0-0-
--10------
0-----0---
00--00----
---0---0-0
-100-0-1--
-1---0-000
-----0-1--
------0-**

Generation = 4, Population = 29.
--*-*0----
----------
*0----01-0
0*---*0---
1----01-00
---------0
-*-1-0-*0-
-10----.--
-0--00--*.

Generation = 6, Population = 40.
-**-*----0
-*--111---
*0-0-00.-0
-.1-**-010
*-0-10----
1-0--11--*
1.--0-0.*-
1.-01--*--
--01*---..

Generation = 8, Population = 45.
**.-.1-0-0
-.---*1--0
.-1-0*-*0-
1**1***--0
.-----1**0
-1---1-*0.
1.11*1*.*1
*.1-.*0*--
-*-*.--1..

*** Life<Cell> 14x15 ***

Generation = 0, Population = 6.
---------------
---------------
---------------
---------------
--0------------
-----------0-0-
---------------
-------------0-
---------------
-0------------0
---------------
---------------
---------------
---------------

Generation = 2, Population = 17.
---------------
---------------
--0------------
-----------0-0-
0---0----------
---------0-0---
--0------------
-0-----------01
---------------
---0--------010
---------------
-0------------0
---------------
---------------

Generation = 4, Population = 24.
--0------------
-----------0-0-
---------------
-------------0-
0-----0--------
-0-----0-0---00
---------------
---------0---**
--0------------
-0---0----01*1-
---------------
-------------1-
---------------
-0------------0

*** Life<Cell> 8x7 ***

Generation = 0, Population = 21.
----0-0
00-----
0----0-
--00-00
-0--0-0
00--0-0
0------
--0--00

Generation = 33, Population = 12.
..1-**.
...*-.*
......*
.....**
.......
..-....
...**..
...**..

*** Life<Cell> 14x11 ***

Generation = 0, Population = 13.
---------0-
----0-0----
-----------
-----------
-----------
------00---
------0----
----00-----
-----------
-----------
-----------
------0----
--0---0--0-
-0---------

Generation = 9, Population = 69.
----0.*--00
-0-0--1**1-
0-00-0--.0-
----1*101-*
00*-*-.1--*
*--1.---*-*
*-.1.0.-.-.
..1*1-.-.0-
*-.0-..0**.
-11.-**.-0-
0-10--.-*1.
-**-.-.-*-.
*-.*01-..-*
0-*-0**-0**

Generation = 18, Population = 57.
1---1*.-*-*
*-.*.*....*
...-.-.-..0
*...**.1.-*
*-...*..1**
..-..1-..1.
.-*..1*....
.....-...*1
*0..*..***.
*.-...***-.
*.**1****..
**.....**.*
.1.*...**-.
...01*.....

Generation = 27, Population = 39.
*..-.**0.-.
*.......*..
.........*-
..*.*.*..*.
.***.....*.
.*..*.**.*.
.*.**-**...
.*.*..*....
.......*..*
..*....****
....1......
...........
.........**
...0-......

Generation = 36, Population = 14.
...-...-.-.
...........
..........-
...........
...***.....
..**.*.....
.*.*.......
**.*.......
.**........
...........
....-......
...........
...........
...-1......

Generation = 45, Population = 7.
...-...-.-.
...........
..........-
...........
...........
...........
...........
..**.......
..**.......
..**.......
....-......
...........
...........
...0-......

Generation = 54, Population = 7.
...-...-.-.
...........
..........-
...........
...........
...........
...........
..**.......
.*..*......
..**.......
....-......
...........
...........
...-1......

*** Life<Cell> 14x14 ***

Generation = 0, Population = 8.
--------------
---------0----
--------------
-----0---0----
--------------
--------------
--------------
--------------
--------------
--------------
--00----------
---0--0-------
-----0--------
--------------

Generation = 2, Population = 24.
--------------
-----0-0-0-0--
--------------
---0-----0-0--
--------------
-----0---0----
--------------
--------------
--00----------
---1--0-------
01--1---------
-0--10--0-----
--0----0------
---0--0-------

Generation = 4, Population = 26.
--------------
-----0---0---0
--------------
-0---0---0---0
--------------
---------0----
--00----------
---1-00--0----
-----0--------
---.----------
*---.-10------
--0----0--0---
-0---1---0----
---0--0-------

Generation = 6, Population = 58.
--------------
-0-0-0---0----
--------------
-----0--------
--00----------
-0-1--00---0-0
01--1---------
-0-.00--10-0--
0-1---0-------
--0*-111-00---
***-.1.-1-----
1--*1*0-10--0-
1-----01---0--
-11010010-0---

*** Life<Cell> 8x6 ***

Generation = 0, Population = 6.
------
------
------
---0-0
--0-0-
-0----
------
--0---

Generation = 2, Population = 16.
------
---0-0
--0-0-
---0--
0-0-0-
--0--0
--1-0-
010-0-

Generation = 4, Population = 15.
--0-0-
-0----
------
-010-0
----0-
-10--0
------
*1-0-1

Generation = 6, Population = 18.
0-----
-00--0
--1---
1*1-10
--1---
-.*-00
1---1-
.*-0--

Generation = 8, Population = 13.
------
-*0---
--1-1-
*.*-.*
------
-**0--
1---.-
..0-1-

Generation = 10, Population = 23.
--1-0-
-.0110
10--1-
.*.**.
111-0-
-*.-1-
-0-1.0
..-01-

Generation = 12, Population = 22.
-1*-*-
1.0---
.01---
.**..*
.-.1-1
-..1*-
**1**-
.*-0.1

*** Life<Cell> 6x5 ***

Generation = 0, Population = 7.
---00
-0---
--0--
----0
-----
-0-0-

Generation = 2, Population = 11.
-1-*-
---11
0--1-
--110
--0--
----1

Generation = 4, Population = 14.
1--*-
-1-.*
0--1-
111*-
---00
---11

Generation = 6, Population = 15.
111.1
11-.*
-10*-
---.-
111-0
0----

Generation = 8, Population = 16.
1*..*
1*-.*
11-*0
-11*-
-1.1-
--1--

*** Life<Cell> 5x11 ***

Generation = 0, Population = 7.
-----------
00--00-----
-----0--0--
----------0
-----------

Generation = 2, Population = 18.
-----1--0--
*-----10--0
---0--11--1
00--01--1-0
-----0--0--

Generation = 4, Population = 15.
-----1--0--
**0-----01-
-1--0----11
------0-.-*
-----*--*--

*** Life<Cell> 6x7 ***

Generation = 0, Population = 5.
-------
-00----
-------
-0-----
0----0-
-------

Generation = 1, Population = 13.
-00----
0110---
--0----
--0--0-
----0-0
0----0-

Generation = 2, Population = 13.
-------
1*-10--
0----0-
-010---
0-00---
-0-----

Generation = 3, Population = 18.
00-00--
-*-*1--
100---0
01*-00-
----0--
---0---

*** Life<Cell> 7x5 ***

Generation = 0, Population = 18.
00-00
---0-
---00
0-0--
000--
0-00-
0-0-0

Generation = 10, Population = 14.
.-...
..**-
-**1*
.0*-*
.0*.*
*--.*
-....

Generation = 20, Population = 11.
.1.*.
....*
...**
...**
..*.*
..**.
.....

Generation = 30, Population = 4.
.-...
.....
.....
.....
.....
**...
**...

Generation = 40, Population = 4.
.-...
.....
.....
.....
.....
**...
**...
