20

4 4
5
0 0
0 1
1 0
1 1
0 2
2 1

4 4
5
1 1
0 1
1 0
1 1
0 2
2 1

4 4
5
0 0
1 1
1 0
1 1
0 2
2 1

4 4
5
0 0
0 1
1 1
1 1
0 2
2 1

4 4
5
0 0
0 1
1 0
1 1
0 1
2 1

10 10
5
4 0
4 1
4 0
4 1
4 2
2 1

8 8
5
5 1
5 1
5 0
5 1
5 2
1 1

5 5
5
2 0
2 1
2 0
2 1
2 2
2 1

5 5
5
3 0
3 1
3 1
3 1
3 2
2 1

10 10
5
6 0
6 1
6 0
6 1
3 1
2 1

10 10
5
0 0
7 1
1 0
1 1
0 2
2 1

10 10
5
1 1
0 1
1 8
1 1
0 2
2 1

10 10
5
0 0
1 1
1 0
1 9
0 2
2 1

10 10
5
0 0
0 1
1 4
1 1
0 2
2 1

10 10
5
0 0
0 5
1 0
1 1
0 1
2 1

10 10
5
4 0
4 1
4 0
8 1
3 2
2 1

10 10
5
5 1
3 1
5 0
5 1
5 2
2 1

5 5
5
2 0
4 1
2 0
2 1
2 2
2 1

5 5
5
3 0
3 1
3 1
3 1
3 2
2 1

10 10
5
9 0
9 1
9 0
9 1
9 1
2 1
