9

12 37
23
7 35
2 4
10 27
3 10
2 19
0 21
5 6
4 26
8 19
11 30
4 36
1 17
10 18
4 1
7 11
7 6
1 11
0 3
4 14
1 10
1 36
1 28
7 29
8 8

13 9
1
0 5
83 4

5 8
5
4 6
1 5
4 7
0 0
4 3
3 1

3 7
5
0 6
0 5
1 1
0 5
0 5
1 1

7 10
4
3 6
6 0
3 4
4 5
89 8

19 3
10
1 0
8 0
13 0
14 2
8 0
13 2
16 1
4 1
8 1
18 1
5 2

6 7
11
4 5
0 5
1 4
4 1
0 5
1 3
0 6
4 6
0 2
2 5
3 1
4 3

4 7
20
2 1
0 4
1 0
3 2
2 2
3 1
2 3
0 1
0 0
2 5
2 5
1 5
0 5
2 1
0 3
2 1
1 1
0 1
0 3
1 3
32 17

5 6
9
4 2
4 5
0 4
4 0
1 1
3 2
0 0
2 0
3 0
10 3
