*** Life<Cell> 9x8 ***

Generation = 0, Population = 1.
--------
--------
--------
--0-----
--------
--------
--------
--------
--------

Generation = 2, Population = 4.
--------
--0-----
--------
0---0---
--------
--0-----
--------
--------
--------

Generation = 4, Population = 3.
--------
--------
--------
0-----0-
--------
--------
--------
--0-----
--------

*** Life<Cell> 10x8 ***

Generation = 0, Population = 5.
--------
-0------
--------
--------
-----0--
0-------
------0-
--------
--------
---0----

Generation = 2, Population = 17.
--------
---0----
-----0--
00------
---0--10
0-0-----
----01--
0--0----
------0-
-0-0-0--

Generation = 4, Population = 16.
-----0--
0----1--
------1-
--------
-1----.*
-0001---
--1--.1-
---0----
-----0--
1------0

Generation = 6, Population = 42.
---0-*10
0-00-.-0
-0--00-1
1*00001-
-.01--..
10*-.---
00*-*.11
0-001--0
--01--11
--00-1--

*** Life<Cell> 13x10 ***

Generation = 0, Population = 4.
----------
----------
----------
-------0--
----------
----------
----------
----------
----------
-0--0----0
----------
----------
----------

Generation = 1, Population = 15.
----------
----------
-------0--
------0-0-
-------0--
----------
----------
----------
-0--0----0
0-00-0--0-
-0--0----0
----------
----------

Generation = 2, Population = 15.
----------
-------0--
----------
-----0---0
----------
-------0--
----------
-0--0----0
----------
--11--00-0
----------
-0--0----0
----------

Generation = 3, Population = 50.
-------0--
------0-0-
-----0-0-0
----0-0-0-
-----0-0-0
------0-0-
-0--0--0-0
0-00-0--0-
-0000-00--
-0**0011--
-0000-00--
0-00-0--0-
-0--0----0

Generation = 4, Population = 10.
----------
----------
----------
---0-----0
----------
-0--0----0
----------
-------0--
----------
01..---*0-
----------
----------
----------

Generation = 5, Population = 31.
----------
----------
---0-----0
--0-0---0-
-0-00-----
0-00-0--0-
-0--0--0-0
------0-0-
00------0-
1*..--1.10
00-----00-
----------
----------

*** Life<Cell> 15x9 ***

Generation = 0, Population = 6.
---------
---------
---------
---------
-0-------
---------
------0--
---------
-------0-
---------
-----0---
----0----
-0-------
---------
---------

Generation = 2, Population = 17.
---------
---------
-0-------
---------
---0--0--
---------
-0--0--10
---------
------1--
----0----
-0-0-----
--0---0--
---0-0---
----0----
-0-------

*** Life<Cell> 5x12 ***

Generation = 0, Population = 5.
-0-------0--
------------
-----0------
-0----------
----0-------

Generation = 1, Population = 17.
0-0-----0-0-
-0---0---0--
-0--0-0-----
0-0-00------
-0-0-0------

Generation = 2, Population = 17.
-0-0-0-0-0-0
-1----------
-1-01--0-0--
---0--------
--0-010-----

Generation = 3, Population = 25.
01----------
0-0-00-----0
0*--*00---0-
-0-10000-0--
-0-01-10----

Generation = 4, Population = 10.
-*--00-----0
------------
-.--.-------
-----1------
01---1--00--

Generation = 5, Population = 29.
0.00110---0-
-1--00-----0
-.--.0------
00--0*0-00--
1*0-1*10110-

*** Life<Cell> 13x6 ***

Generation = 0, Population = 3.
---0--
------
------
------
------
------
------
0-----
------
------
-0----
------
------

Generation = 1, Population = 10.
--0-0-
---0--
------
------
------
------
0-----
-0----
0-----
-0----
0-0---
-0----
------

Generation = 2, Population = 11.
-0-0-0
------
---0--
------
------
0-----
------
0-0---
-0----
0-----
---0--
------
-0----

Generation = 3, Population = 20.
0-----
-0---0
--0-0-
---0--
0-----
-0----
--0---
-0-0--
0-----
---0--
0-0-0-
-0-0--
0-0---

Generation = 4, Population = 11.
-----0
------
---0--
0-----
---0--
------
-0----
--0-0-
------
------
-0---0
0-----
-0----

Generation = 5, Population = 24.
----0-
---0-0
0-0-0-
-0----
0-0-0-
-0-0--
0---0-
-----0
--0-0-
-0---0
--0-0-
-0---0
--0---

*** Life<Cell> 12x12 ***

Generation = 0, Population = 3.
------------
------------
------------
------------
------------
------------
----------0-
----------0-
------------
--0---------
------------
------------

Generation = 2, Population = 10.
------------
------------
------------
------------
----------0-
----------1-
--------0---
--0-----0---
----------1-
0---0-----0-
------------
--0---------

Generation = 4, Population = 12.
------------
------------
----------0-
----------1-
------------
--0-------.-
------0---*-
------0---*-
----------.-
0-----0-----
----------1-
--0-------0-

Generation = 6, Population = 37.
----------0-
----------1-
--------0---
--0-----0-.-
------0---*-
0---0-1--0*0
----0----1.1
0-0-0-*--1.1
------0--0*0
0---0-0-0-*-
--------0-.-
--0-0-0-0-*-

*** Life<Cell> 8x10 ***

Generation = 0, Population = 3.
-------0--
--------0-
----------
----------
----------
----------
---0------
----------

Generation = 1, Population = 7.
------0---
---------0
--------0-
----------
----------
---0------
--0-0-----
---0------

*** Life<Cell> 14x10 ***

Generation = 0, Population = 1.
----------
----------
----------
----------
----------
----------
--------0-
----------
----------
----------
----------
----------
----------
----------

Generation = 1, Population = 4.
----------
----------
----------
----------
----------
--------0-
-------0-0
--------0-
----------
----------
----------
----------
----------
----------

*** Life<Cell> 6x7 ***

Generation = 0, Population = 3.
-0-----
-0-----
-------
---0---
-------
-------

Generation = 1, Population = 11.
010----
010----
-0-0---
--0-0--
---0---
-------

Generation = 2, Population = 5.
-*-0---
-------
-1-----
-----0-
-------
---0---

Generation = 3, Population = 13.
0.--0--
---0---
0-0--0-
-0--0-0
---0-0-
--0-0--

Generation = 4, Population = 6.
-.---0-
-----0-
-1-----
-------
-0-----
-0-0---

Generation = 5, Population = 17.
-.--010
-1--010
0-0--0-
-------
0100---
01--0--

Generation = 6, Population = 12.
-.-0-*-
---0---
-1-0-1-
-0-0-0-
-*-1---
-----0-

*** Life<Cell> 14x8 ***

Generation = 0, Population = 3.
--------
--------
-----0--
--------
-------0
--------
--------
--------
--------
--------
--------
--------
---0----
--------

Generation = 2, Population = 7.
-----0--
--------
---0----
--------
-------0
--------
-------0
--------
--------
--------
---0----
--------
-0---0--
--------

*** Life<Cell> 5x14 ***

Generation = 0, Population = 2.
--------------
--------------
0---0---------
--------------
--------------

Generation = 2, Population = 6.
0---0---------
--------------
0-----0-------
--------------
0---0---------

Generation = 4, Population = 8.
0---0---------
--------------
0-0-0---0-----
--------------
0---0---------

Generation = 6, Population = 10.
0-0---0-0-----
--------------
----0-----0---
--------------
0-0---0-0-----

*** Life<Cell> 6x6 ***

Generation = 0, Population = 4.
------
------
------
-0----
----0-
-0--0-

Generation = 2, Population = 9.
------
-0----
----0-
-0-01-
--0---
--11*-

Generation = 4, Population = 9.
----0-
-0--1-
------
----11
0---1-
0--1.-

*** Life<Cell> 15x13 ***

Generation = 0, Population = 1.
-------------
-------------
-------------
-------------
-------------
-------------
-------------
-------------
-------------
-------------
---------0---
-------------
-------------
-------------
-------------

Generation = 1, Population = 4.
-------------
-------------
-------------
-------------
-------------
-------------
-------------
-------------
-------------
---------0---
--------0-0--
---------0---
-------------
-------------
-------------

Generation = 2, Population = 4.
-------------
-------------
-------------
-------------
-------------
-------------
-------------
-------------
---------0---
-------------
-------0---0-
-------------
---------0---
-------------
-------------

Generation = 3, Population = 16.
-------------
-------------
-------------
-------------
-------------
-------------
-------------
---------0---
--------0-0--
-------0-0-0-
------0-0-0-0
-------0-0-0-
--------0-0--
---------0---
-------------

*** Life<Cell> 8x15 ***

Generation = 0, Population = 2.
---------------
---------------
---------------
---------------
---0-----------
---------------
---------------
----0----------

Generation = 2, Population = 8.
---------------
---------------
---0-----------
---------------
-0---0---------
----0----------
---0-----------
--0-0-0--------

Generation = 4, Population = 6.
---0-----------
---------------
---------------
----0----------
-------0-------
----0----------
---------------
0-------0------

*** Life<Cell> 6x7 ***

Generation = 0, Population = 4.
0------
-0-0---
-------
-0-----
-------
-------

Generation = 2, Population = 6.
--0----
---0-0-
0------
-0-----
-------
-0-----

Generation = 4, Population = 9.
--0-0--
---0-0-
0------
-0---0-
0------
---0---

*** Life<Cell> 11x5 ***

Generation = 0, Population = 3.
-----
-----
-----
-----
0----
-----
-----
0-0--
-----
-----
-----

Generation = 1, Population = 8.
-----
-----
-----
0----
-0---
0----
0-0--
---0-
0-0--
-----
-----

*** Life<Cell> 12x7 ***

Generation = 0, Population = 1.
-------
-------
-------
-------
-------
-------
-------
-------
-------
-------
---0---
-------

Generation = 1, Population = 4.
-------
-------
-------
-------
-------
-------
-------
-------
-------
---0---
--0-0--
---0---

Generation = 2, Population = 3.
-------
-------
-------
-------
-------
-------
-------
-------
---0---
-------
-0---0-
-------

Generation = 3, Population = 12.
-------
-------
-------
-------
-------
-------
-------
---0---
--0-0--
-0-0-0-
0-0-0-0
-0---0-

*** Life<Cell> 8x6 ***

Generation = 0, Population = 3.
0-----
------
------
--0---
------
------
----0-
------

Generation = 1, Population = 10.
-0----
0-----
--0---
-0-0--
--0---
----0-
---0-0
----0-

Generation = 2, Population = 8.
--0---
--0---
0-----
0---0-
----0-
--0---
--0---
------

Generation = 3, Population = 29.
-010--
0010--
100-0-
10-010
0-0010
-0100-
-010--
--0---

Generation = 4, Population = 8.
--*-0-
------
*---1-
*-----
1-----
------
0-----
--1---

Generation = 5, Population = 17.
-0.--0
0-1---
.0-0-0
*0--1-
*0----
------
-01---
00-0--

Generation = 6, Population = 15.
--.-0-
------
.10-1-
.10---
*-0-1-
0-1---
--*---
1-1-0-

Generation = 7, Population = 20.
--.0-0
-01---
.----0
*-10--
*0---0
1--00-
-0*00-
--*--0

*** Life<Cell> 14x12 ***

Generation = 0, Population = 5.
------------
---------0--
------0-----
------------
------------
0--0--------
------------
------------
------------
----------0-
------------
------------
------------
------------

Generation = 2, Population = 18.
------0-----
-------0---0
----0---0---
0--0-----0--
------0-----
011--0------
------------
0--0------0-
------------
--------0---
------------
----------0-
------------
------------
