8

3 7
7
0 2
1 5
2 4
1 0
1 2
2 3
2 4
13 8

14 6
38
13 1
7 3
10 1
9 1
7 5
7 1
2 5
12 0
5 4
8 1
4 1
13 0
5 4
13 5
4 0
9 1
1 1
9 0
1 5
3 5
3 2
8 4
13 0
7 2
7 1
2 1
2 1
3 1
6 4
13 0
13 0
6 1
0 5
5 4
9 0
10 1
3 0
6 1
1 1

14 5
29
13 3
3 4
7 4
6 2
11 1
10 3
5 3
6 4
12 2
6 2
7 3
7 4
5 1
7 4
3 1
13 1
13 1
3 4
7 4
4 2
9 1
8 0
7 4
8 1
13 3
1 0
10 3
6 4
6 0
11 6

12 1
1
10 0
9 4

6 6
10
5 3
3 1
0 2
3 0
2 4
2 5
0 3
3 2
3 5
5 2
16 2

8 12
33
4 2
2 6
5 1
6 8
6 6
0 6
4 11
4 1
5 8
7 8
6 3
7 10
5 10
5 3
0 4
7 5
1 0
4 9
2 3
4 1
2 3
5 3
4 10
6 2
1 9
4 9
7 11
7 9
2 9
0 4
2 11
0 11
3 10
19 5

14 10
41
6 8
0 9
9 6
4 9
5 5
5 0
1 9
8 6
7 3
13 6
12 8
12 4
9 7
9 6
12 4
1 6
7 5
8 6
1 1
2 6
4 8
0 4
6 8
9 4
7 5
3 5
7 6
9 4
2 5
0 0
1 2
9 1
4 4
1 6
2 7
8 5
10 3
7 2
10 6
2 6
0 5
16 1

5 13
25
1 2
3 2
3 10
4 9
3 12
1 11
4 11
0 10
3 3
3 10
1 11
2 9
4 0
4 8
2 12
4 7
0 3
0 8
0 2
3 4
4 11
0 6
2 11
4 0
4 5
11 6
