*** Life<ConwayCell> 9x4 ***

Generation = 0, Population = 10.
....
...*
....
*...
.*..
*...
***.
....
*.**

Generation = 2, Population = 7.
....
....
....
....
**..
..*.
*.*.
**..
....

Generation = 4, Population = 7.
....
....
....
....
.*..
*.*.
*.*.
**..
....

*** Life<ConwayCell> 9x7 ***

Generation = 0, Population = 8.
.*.....
..*....
.......
.*.....
.......
..*..*.
.......
.......
**..*..

Generation = 1, Population = 0.
.......
.......
.......
.......
.......
.......
.......
.......
.......

Generation = 2, Population = 0.
.......
.......
.......
.......
.......
.......
.......
.......
.......

Generation = 3, Population = 0.
.......
.......
.......
.......
.......
.......
.......
.......
.......

*** Life<ConwayCell> 5x11 ***

Generation = 0, Population = 9.
..*........
...**......
.....*.*.*.
...*.......
.*......*..

Generation = 2, Population = 7.
...**......
..***......
...**......
...........
...........

Generation = 4, Population = 6.
...*.......
.**.**.....
...*.......
...........
...........

*** Life<ConwayCell> 11x11 ***

Generation = 0, Population = 8.
...........
...**...*..
.......*...
...........
..........*
...........
...........
....*.*....
....*......
...........
...........

Generation = 2, Population = 0.
...........
...........
...........
...........
...........
...........
...........
...........
...........
...........
...........

Generation = 4, Population = 0.
...........
...........
...........
...........
...........
...........
...........
...........
...........
...........
...........

*** Life<ConwayCell> 10x11 ***

Generation = 0, Population = 15.
**.........
..*..*.....
.....*....*
.....*....*
...........
..*...*....
...........
..*.....*..
...........
*....**....

Generation = 1, Population = 5.
.*.........
.*.........
....***....
...........
...........
...........
...........
...........
...........
...........

Generation = 2, Population = 3.
...........
.....*.....
.....*.....
.....*.....
...........
...........
...........
...........
...........
...........

Generation = 3, Population = 3.
...........
...........
....***....
...........
...........
...........
...........
...........
...........
...........

*** Life<ConwayCell> 8x11 ***

Generation = 0, Population = 11.
.......*...
.*.........
.......*..*
...........
.*.........
..........*
..***......
*.......*..

Generation = 1, Population = 4.
...........
...........
...........
...........
...........
..**.......
...*.......
...*.......

Generation = 2, Population = 4.
...........
...........
...........
...........
...........
..**.......
...**......
...........

Generation = 3, Population = 6.
...........
...........
...........
...........
...........
..***......
..***......
...........

*** Life<ConwayCell> 9x9 ***

Generation = 0, Population = 9.
*........
.....*...
......*..
.*.......
....*.*..
......*..
..*......
.........
....*....

Generation = 1, Population = 3.
.........
.........
.........
.....*...
.....*...
.....*...
.........
.........
.........

Generation = 2, Population = 3.
.........
.........
.........
.........
....***..
.........
.........
.........
.........

Generation = 3, Population = 3.
.........
.........
.........
.....*...
.....*...
.....*...
.........
.........
.........

*** Life<ConwayCell> 4x8 ***

Generation = 0, Population = 5.
...***..
........
........
.*.....*

Generation = 1, Population = 2.
....*...
....*...
........
........

Generation = 2, Population = 0.
........
........
........
........

Generation = 3, Population = 0.
........
........
........
........

Generation = 4, Population = 0.
........
........
........
........

Generation = 5, Population = 0.
........
........
........
........

*** Life<ConwayCell> 7x6 ***

Generation = 0, Population = 12.
...**.
*..*..
.*....
......
...**.
***.*.
...*..

Generation = 1, Population = 15.
...**.
..***.
......
......
.****.
.**.*.
.***..

Generation = 2, Population = 13.
..*.*.
..*.*.
...*..
..**..
.*..*.
*...*.
.*.*..

Generation = 3, Population = 14.
......
..*.*.
....*.
..***.
.**.*.
*****.
......

*** Life<ConwayCell> 4x5 ***

Generation = 0, Population = 8.
..*..
.*...
.*.**
*.*.*

Generation = 1, Population = 9.
.....
.*.*.
**.**
.**.*

Generation = 2, Population = 10.
.....
**.**
*...*
***.*

Generation = 3, Population = 8.
.....
**.**
....*
**.*.

Generation = 4, Population = 3.
.....
...**
....*
.....

Generation = 5, Population = 4.
.....
...**
...**
.....
